{
  "project_info": {
    "project_number": "764256019692",
    "project_id": "papb-fb-fd69f",
    "storage_bucket": "papb-fb-fd69f.appspot.com"
  },
  "client": [
    {
      "client_info": {
        "mobilesdk_app_id": "1:764256019692:android:6a6eacc0c7eeeb1eeaf1c9",
        "android_client_info": {
          "package_name": "com.example.notes_signup"
        }
      },
      "oauth_client": [],
      "api_key": [
        {
          "current_key": "AIzaSyBeVLqjftPE9tlCF9M6zhTDNYc5rco_LXw"
        }
      ],
      "services": {
        "appinvite_service": {
          "other_platform_oauth_client": []
        }
      }
    }
  ],
  "configuration_version": "1"
}